^F:\WORK\NVR\程序整合\LIBRARY\ARUCOBOARD\ARUCOBOARD\X64\RELEASE\ARUCOBOARD.OBJ|F:\WORK\NVR\程序整合\LIBRARY\ARUCOBOARD\ARUCOBOARD\X64\RELEASE\DLLMAIN.OBJ|F:\WORK\NVR\程序整合\LIBRARY\ARUCOBOARD\ARUCOBOARD\X64\RELEASE\PCH.OBJ
/OUT:"F:\WORK\NVR\程序整合\LIBRARY\ARUCOBOARD\X64\RELEASE\ARUCOBOARD.DLL" /INCREMENTAL:NO /NOLOGO OPENCV_WORLD480.LIB KERNEL32.LIB USER32.LIB GDI32.LIB WINSPOOL.LIB COMDLG32.LIB ADVAPI32.LIB SHELL32.LIB OLE32.LIB OLEAUT32.LIB UUID.LIB ODBC32.LIB ODBCCP32.LIB /MANIFEST /MANIFESTUAC:NO /manifest:embed /DEBUG /PDB:"F:\WORK\NVR\程序整合\LIBRARY\ARUCOBOARD\X64\RELEASE\ARUCOBOARD.PDB" /SUBSYSTEM:WINDOWS /OPT:REF /OPT:ICF /LTCG:incremental /LTCGOUT:"X64\RELEASE\ARUCOBOARD.IOBJ" /TLBID:1 /DYNAMICBASE /NXCOMPAT /IMPLIB:"F:\WORK\NVR\程序整合\LIBRARY\ARUCOBOARD\X64\RELEASE\ARUCOBOARD.LIB" /MACHINE:X64 /DLL X64\RELEASE\ARUCOBOARD.OBJ
X64\RELEASE\DLLMAIN.OBJ
X64\RELEASE\PCH.OBJ
